<svg width="805" height="287" viewBox="0 0 805 287" fill="none" xmlns="http://www.w3.org/2000/svg">
<mask id="mask0_1_53231" style="mask-type:alpha" maskUnits="userSpaceOnUse" x="0" y="0" width="805" height="287">
<rect width="805" height="287" rx="6" fill="#005692"/>
</mask>
<g mask="url(#mask0_1_53231)">
<path fill-rule="evenodd" clip-rule="evenodd" d="M300.19 153.757C308.33 77.4358 745.069 -69.8719 826.148 2.41792C907.227 74.7077 886.704 226.761 716.793 261.502C546.881 296.244 292.05 230.078 300.19 153.757Z" fill="#DDE3E9" fill-opacity="0.06"/>
<path fill-rule="evenodd" clip-rule="evenodd" d="M868.515 319.312C811.461 370.654 388.105 188.418 376.088 80.459C364.071 -27.5003 480.942 -126.912 630.567 -39.2232C780.192 48.4653 925.569 267.969 868.515 319.312Z" fill="#DDE3E9" fill-opacity="0.06"/>
<path d="M680.474 17.0074C663.177 14.1068 647.873 16.1235 633.685 23.1698C621.963 28.9914 610.803 38.4666 599.568 52.1353C590.129 63.6219 581.52 76.9068 573.196 89.7552C563.411 104.854 553.295 120.47 541.969 132.844C521.524 155.186 513.299 173.921 517.521 188.526C521.183 201.201 534.052 210.643 555.774 216.584C577.626 222.563 603.468 223.61 621.299 223.437C642.209 223.234 664.107 221.2 679.876 217.995C695.152 214.891 714.692 209.832 730.334 198.16C740.441 190.62 748.841 180.435 755.3 167.887C758.107 162.435 760.502 156.643 762.47 150.551C764.589 143.991 766.215 137.085 767.329 129.881C769.308 117.088 768.327 104.055 764.414 91.1466C760.715 78.9389 754.584 67.3964 746.194 56.8426C729.394 35.7128 705.441 21.1934 680.474 17.0074ZM745.673 57.2567C754.01 67.7444 760.102 79.2137 763.776 91.341C767.66 104.153 768.633 117.087 766.669 129.782C764.531 143.602 760.506 156.321 754.709 167.585C748.296 180.04 739.96 190.148 729.936 197.629C721.774 203.718 708.693 211.462 679.744 217.345C664.012 220.541 642.162 222.571 621.292 222.774C603.503 222.946 577.726 221.901 555.948 215.944C534.466 210.066 521.752 200.78 518.157 188.342C516.494 182.584 516.808 176.163 519.088 169.105C522.498 158.549 530.305 146.572 542.459 133.294C553.822 120.878 563.955 105.239 573.754 90.1172C582.068 77.2843 590.667 64.0171 600.084 52.558C611.412 38.7728 622.183 29.6236 633.982 23.7641C648.04 16.7828 663.211 14.7863 680.365 17.6636C705.171 21.821 728.975 36.2528 745.673 57.2567Z" fill="white" fill-opacity="0.1"/>
<path d="M636.89 31.4865C625.868 36.9428 615.404 45.8278 604.902 58.6481C596.125 69.3541 588.156 81.7374 580.448 93.7111C576.506 99.8361 572.43 106.167 568.319 112.158C567.114 113.916 565.928 115.61 564.795 117.193C559.964 123.944 555.479 129.553 551.077 134.347C527.798 159.739 521.406 180.023 532.079 194.64C537.83 202.487 548.471 208.598 563.705 212.807C578.968 217.06 598.915 219.321 621.385 219.349C642.267 219.377 664.286 217.445 680.285 214.184C694.588 211.273 712.886 206.533 727.541 195.613C741.214 185.429 751.601 169.966 757.718 151.03C759.686 144.94 761.212 138.486 762.265 131.738C764.112 119.927 763.257 107.891 759.724 95.9604C756.378 84.6633 750.794 73.9426 743.125 64.092C727.32 43.7772 704.59 29.8112 680.762 25.7744C664.536 23.0335 650.186 24.9019 636.89 31.4865ZM742.597 64.5013C750.216 74.2843 755.763 84.9325 759.083 96.1493C762.589 107.985 763.436 119.923 761.603 131.636C759.59 144.558 755.811 156.452 750.368 166.985C744.352 178.63 736.536 188.082 727.14 195.079C719.498 200.772 707.251 208.017 680.151 213.531C664.192 216.782 642.225 218.709 621.384 218.683C598.974 218.656 579.09 216.401 563.882 212.165C548.796 208 538.276 201.97 532.616 194.247C527.356 187.045 526.355 178.408 529.586 168.404C532.781 158.514 540.118 147.287 551.568 134.796C555.986 129.985 560.489 124.353 565.336 117.58C566.471 115.993 567.66 114.295 568.869 112.534C572.984 106.537 577.064 100.2 581.007 94.0711C588.703 82.1122 596.662 69.7465 605.416 59.0701C615.856 46.3233 626.248 37.4964 637.184 32.0823C650.352 25.5633 664.567 23.7144 680.646 26.4307C704.313 30.4389 726.892 44.3144 742.597 64.5013Z" fill="white" fill-opacity="0.1"/>
<path d="M640.091 39.8086C629.77 44.8996 620.004 53.1951 610.233 65.1662C602.113 75.0974 594.78 86.582 587.687 97.688C583.983 103.489 580.152 109.487 576.276 115.156C575.153 116.801 574.048 118.381 572.994 119.857C568.513 126.132 564.324 131.364 560.188 135.852C548.863 148.176 541.734 159.3 538.99 168.917C536.482 177.719 537.58 185.479 542.255 191.985C547.549 199.293 557.433 205.027 571.636 209.029C589.775 214.139 610.98 215.23 625.576 215.244C645.071 215.263 665.675 213.443 680.691 210.371C694.023 207.655 711.075 203.231 724.741 193.066C737.545 183.549 747.27 169.094 752.985 151.398C754.801 145.774 756.215 139.819 757.192 133.594C758.936 122.574 758.15 111.34 754.854 100.203C751.73 89.6461 746.496 79.616 739.301 70.3959C724.531 51.426 703.296 38.36 681.038 34.5462C665.893 31.9684 652.499 33.6891 640.091 39.8086ZM738.779 70.8051C745.923 79.9618 751.117 89.916 754.22 100.394C757.488 111.433 758.269 122.57 756.538 133.492C755.567 139.685 754.163 145.602 752.356 151.197C746.682 168.758 737.04 183.101 724.346 192.535C717.223 197.833 705.809 204.576 680.56 209.723C665.585 212.785 645.031 214.603 625.579 214.581C611.024 214.567 589.883 213.48 571.819 208.391C557.763 204.431 547.998 198.782 542.796 191.601C538.246 185.269 537.183 177.699 539.631 169.103C539.759 168.657 539.894 168.21 540.04 167.758C543.014 158.552 549.95 147.98 560.676 136.303C564.829 131.795 569.036 126.543 573.535 120.244C574.593 118.764 575.699 117.177 576.825 115.531C580.706 109.855 584.541 103.851 588.249 98.0465C595.332 86.956 602.655 75.489 610.749 65.5868C620.459 53.6891 630.155 45.4525 640.388 40.405C652.665 34.3505 665.925 32.6472 680.931 35.2031C703.026 38.9876 724.11 51.9653 738.779 70.8051Z" fill="white" fill-opacity="0.1"/>
<path d="M643.301 48.1265C633.682 52.8508 624.612 60.556 615.569 71.6794C608.104 80.8393 601.401 91.4308 594.918 101.674C591.455 107.146 587.874 112.803 584.236 118.146C583.198 119.671 582.174 121.14 581.197 122.513C577.061 128.317 573.169 133.17 569.301 137.351C558.785 148.767 552.142 159.057 549.555 167.932C547.177 176.085 548.147 183.282 552.437 189.328C557.249 196.109 566.378 201.463 579.576 205.247C596.481 210.096 616.209 211.124 629.779 211.135C647.885 211.151 667.073 209.439 681.108 206.556C693.467 204.032 709.278 199.928 721.955 190.516C733.891 181.666 742.951 168.22 748.267 151.764C749.933 146.606 751.233 141.148 752.136 135.448C755.354 115.403 749.444 94.5377 735.493 76.6962C728.886 68.2184 720.557 60.7188 711.406 55.0075C701.869 49.0553 691.75 45.1204 681.333 43.313C667.256 40.8963 654.817 42.4715 643.301 48.1265ZM711.052 55.5756C720.138 61.2448 728.408 68.6903 734.966 77.1082C748.802 94.8029 754.665 115.485 751.475 135.346C747.716 159.061 737.09 178.466 721.553 189.986C714.951 194.888 704.369 201.129 680.97 205.908C666.978 208.781 647.838 210.488 629.777 210.473C616.247 210.464 596.588 209.439 579.756 204.611C566.71 200.87 557.7 195.6 552.978 188.946C548.812 183.076 547.873 176.07 550.192 168.122C552.748 159.344 559.345 149.146 569.79 137.805C573.679 133.603 577.587 128.729 581.739 122.903C582.722 121.527 583.747 120.054 584.787 118.522C588.431 113.169 592.016 107.506 595.482 102.031C601.955 91.8055 608.648 81.2316 616.087 72.1007C625.066 61.0521 634.064 53.4051 643.596 48.725C654.983 43.1329 667.29 41.5778 681.22 43.9728C691.549 45.7655 701.587 49.6697 711.052 55.5756Z" fill="white" fill-opacity="0.1"/>
<path d="M646.506 56.4475C637.591 60.805 629.214 67.9194 620.904 78.1964C614.088 86.5928 608.009 96.2983 602.134 105.683C598.917 110.82 595.592 116.131 592.196 121.142C591.243 122.551 590.302 123.907 589.397 125.177C585.607 130.511 582.012 134.983 578.411 138.856C568.707 149.361 562.553 158.816 560.122 166.945C557.88 174.442 558.719 181.079 562.614 186.674C566.973 192.933 575.348 197.911 587.508 201.469C603.179 206.057 621.427 207.024 633.974 207.03C650.692 207.04 668.466 205.437 681.517 202.746C692.903 200.416 707.472 196.63 719.16 187.972C730.226 179.79 738.625 167.352 743.54 152.136C745.057 147.442 746.241 142.485 747.071 137.308C750.091 118.804 744.624 99.5182 731.676 83.0045C725.576 75.1864 717.883 68.2555 709.424 62.966C700.598 57.4458 691.242 53.7856 681.616 52.0893C668.619 49.8279 657.133 51.2548 646.506 56.4475ZM709.073 63.5257C717.466 68.7752 725.1 75.6498 731.154 83.4088C743.984 99.775 749.406 118.878 746.414 137.198C742.923 158.992 733.102 176.834 718.765 187.435C712.682 191.942 702.933 197.681 681.385 202.093C668.371 204.778 650.651 206.375 633.975 206.365C621.471 206.361 603.29 205.396 587.695 200.831C575.685 197.317 567.431 192.424 563.162 186.292C559.389 180.872 558.581 174.426 560.76 167.133C563.162 159.099 569.266 149.735 578.9 139.305C582.521 135.412 586.132 130.916 589.94 125.56C590.847 124.286 591.79 122.925 592.747 121.513C596.148 116.492 599.477 111.175 602.698 106.035C608.566 96.6667 614.632 86.9781 621.421 78.6128C629.67 68.4113 637.972 61.3565 646.799 57.0425C657.294 51.9121 668.647 50.5053 681.502 52.7393C691.044 54.4223 700.318 58.0518 709.073 63.5257Z" fill="white" fill-opacity="0.1"/>
<path d="M649.727 64.7669C641.512 68.757 633.834 75.2819 626.251 84.7112C620.08 92.3468 614.622 101.175 609.344 109.712C606.379 114.506 603.315 119.466 600.166 124.138C599.296 125.431 598.435 126.676 597.61 127.839C594.21 132.635 590.914 136.731 587.534 140.361C578.628 149.927 572.956 158.541 570.685 165.944C568.586 172.788 569.298 178.868 572.803 184.02C576.71 189.76 584.329 194.361 595.451 197.693C609.882 202.018 626.654 202.925 638.181 202.926C653.511 202.927 669.87 201.435 681.938 198.934C692.353 196.796 705.678 193.33 716.375 185.426C726.574 177.911 734.309 166.481 738.824 152.505C740.189 148.279 741.261 143.816 742.016 139.163C744.837 122.201 739.814 104.496 727.872 89.3064C722.279 82.1458 715.219 75.7872 707.456 70.918C699.343 65.8285 690.748 62.4443 681.915 60.8598C669.99 58.7588 659.461 60.0381 649.727 64.7669ZM707.103 71.477C714.802 76.3069 721.803 82.6113 727.35 89.7128C739.176 104.753 744.151 122.275 741.363 139.052C738.14 158.925 729.126 175.202 715.983 184.887C710.419 188.998 701.506 194.236 681.805 198.279C669.777 200.772 653.47 202.259 638.183 202.258C626.7 202.258 609.999 201.355 595.644 197.053C584.671 193.764 577.172 189.252 573.354 183.641C569.919 178.594 569.255 172.867 571.322 166.134C573.565 158.817 579.185 150.3 588.023 140.808C591.422 137.156 594.736 133.038 598.154 128.218C598.983 127.051 599.845 125.802 600.719 124.503C603.874 119.819 606.942 114.855 609.911 110.055C615.178 101.536 620.625 92.7279 626.77 85.1234C634.29 75.7717 641.894 69.3064 650.018 65.3592C659.622 60.6932 670.02 59.432 681.802 61.5056C690.55 63.0811 699.063 66.4345 707.103 71.477Z" fill="white" fill-opacity="0.1"/>
<path d="M652.947 73.0718C645.442 76.6972 638.458 82.6361 631.597 91.2297C626.064 98.1144 621.219 106.069 616.534 113.766C613.829 118.211 611.03 122.81 608.135 127.135C607.351 128.309 606.572 129.443 605.822 130.503C602.814 134.761 599.73 138.583 596.658 141.866C580.966 158.627 576.497 171.547 582.994 181.365C586.449 186.587 593.312 190.809 603.398 193.916C616.587 197.979 631.881 198.826 642.392 198.822C656.338 198.818 671.278 197.436 682.363 195.123C691.805 193.179 703.889 190.031 713.597 182.881C722.907 176.047 729.982 165.601 734.116 152.806C735.323 149.069 736.279 145.128 736.968 141.022C739.549 125.608 734.969 109.48 724.07 95.6105C718.956 89.1007 712.529 83.3123 705.484 78.866C698.071 74.1891 690.242 71.0823 682.218 69.6312C671.373 67.6694 661.801 68.7968 652.947 73.0718ZM705.128 79.4286C712.109 83.8334 718.479 89.5705 723.546 96.0212C734.326 109.741 738.858 125.685 736.309 140.911C735.626 144.987 734.678 148.894 733.48 152.603C729.39 165.264 722.396 175.596 713.201 182.345C708.156 186.062 700.076 190.797 682.226 194.473C671.184 196.777 656.293 198.156 642.39 198.157C623.432 198.164 610.829 195.511 603.594 193.281C593.661 190.221 586.917 186.089 583.55 180.998C580.518 176.413 579.974 171.105 581.949 164.992C584.078 158.402 589.133 150.879 597.145 142.319C600.238 139.015 603.341 135.169 606.367 130.886C607.121 129.821 607.901 128.682 608.689 127.503C611.59 123.165 614.393 118.561 617.103 114.11C621.777 106.433 626.609 98.4955 632.115 91.644C638.914 83.128 645.822 77.2487 653.236 73.6683C661.958 69.4555 671.398 68.3482 682.098 70.2819C690.038 71.7219 697.786 74.798 705.128 79.4286Z" fill="white" fill-opacity="0.1"/>
<path d="M656.174 81.3958C649.392 84.6473 643.1 89.9945 636.938 97.745C632.055 103.887 627.82 110.97 623.723 117.82C621.275 121.915 618.743 126.149 616.102 130.128C615.401 131.189 614.703 132.209 614.032 133.162C611.367 136.951 608.588 140.385 605.778 143.366C598.384 151.21 593.823 157.945 591.837 163.957C589.978 169.567 590.423 174.389 593.178 178.705C596.225 183.476 602.166 187.214 611.337 190.135C617.927 192.233 629.393 194.729 646.594 194.713C659.151 194.704 672.678 193.431 682.777 191.307C691.246 189.556 702.086 186.725 710.806 180.328C719.246 174.163 725.658 164.721 729.394 153.157C730.449 149.891 731.293 146.451 731.904 142.872C734.28 129.001 730.142 114.453 720.255 101.907C715.644 96.0551 709.852 90.8354 703.502 86.8116C696.799 82.5619 689.735 79.7325 682.503 78.3952C672.752 76.5957 664.136 77.5755 656.174 81.3958ZM703.152 87.3762C709.438 91.3607 715.172 96.5269 719.737 102.321C729.505 114.717 733.595 129.08 731.253 142.761C728.499 158.839 721.1 171.991 710.415 179.794C705.888 183.115 698.642 187.35 682.642 190.658C672.583 192.774 659.107 194.04 646.594 194.049C629.477 194.067 618.083 191.585 611.539 189.501C602.647 186.671 596.657 182.917 593.738 178.348C591.123 174.255 590.69 169.669 592.415 164.33C592.433 164.275 592.45 164.22 592.468 164.165C594.424 158.249 598.935 151.593 606.261 143.823C609.093 140.818 611.891 137.36 614.575 133.544C615.249 132.588 615.949 131.561 616.654 130.495C619.302 126.501 621.838 122.263 624.29 118.162C628.376 111.331 632.6 104.266 637.456 98.1592C643.555 90.4907 649.769 85.2044 656.457 81.9951C664.289 78.2398 672.771 77.2774 682.386 79.0536C689.537 80.3741 696.522 83.1734 703.152 87.3762Z" fill="white" fill-opacity="0.1"/>
<path d="M642.282 104.254C638.023 109.66 634.387 115.891 630.869 121.917C628.693 125.646 626.442 129.499 624.07 133.116C623.453 134.058 622.838 134.968 622.243 135.816C619.915 139.142 617.444 142.186 614.9 144.862C602.199 158.22 598.536 168.126 603.365 176.041C605.959 180.288 611.164 183.661 619.28 186.35C625.176 188.304 635.431 190.627 650.802 190.602C661.878 190.587 673.991 189.423 683.202 187.49C690.731 185.91 700.356 183.377 708.024 177.778C715.596 172.283 721.349 163.844 724.687 153.511C725.591 150.715 726.318 147.778 726.855 144.726C729.026 132.398 725.333 119.429 716.455 108.207C712.345 103.014 707.187 98.3647 701.537 94.7625C695.545 90.9428 689.243 88.3852 682.807 87.1653C666.745 84.1167 653.866 89.5482 642.282 104.254ZM715.936 108.617C724.692 119.688 728.339 132.47 726.201 144.608C723.708 158.77 717.114 170.358 707.635 177.238C703.659 180.14 697.275 183.853 683.066 186.836C673.897 188.762 661.835 189.919 650.804 189.934C635.521 189.96 625.34 187.653 619.491 185.717C611.531 183.081 606.442 179.802 603.935 175.692C599.284 168.074 602.923 158.423 615.384 145.319C617.951 142.62 620.443 139.55 622.79 136.198C623.39 135.344 624.009 134.428 624.627 133.48C627.009 129.848 629.263 125.986 631.445 122.252C634.951 116.245 638.578 110.035 642.806 104.666C654.219 90.177 666.892 84.8231 682.685 87.8154C695.057 90.161 707.488 97.9379 715.936 108.617Z" fill="white" fill-opacity="0.1"/>
<path d="M647.63 110.76C643.987 115.44 640.939 120.832 637.992 126.046C636.098 129.395 634.14 132.859 632.043 136.101C631.51 136.928 630.976 137.724 630.459 138.467C628.463 141.337 626.3 143.989 624.027 146.352C612.927 157.898 609.599 166.483 613.555 173.369C615.697 177.097 620.169 180.102 627.225 182.559C634.573 185.116 644.442 186.509 655.013 186.482C664.694 186.461 675.39 185.408 683.627 183.663C690.595 182.186 698.611 180.027 705.246 175.217C711.949 170.392 717.044 162.955 719.984 153.854C720.735 151.53 721.347 149.094 721.806 146.569C723.772 135.784 720.523 124.395 712.655 114.497C705.118 105.013 694.073 98.0702 683.109 95.9231C668.941 93.1484 657.668 97.8622 647.63 110.76ZM712.135 114.911C719.882 124.658 723.084 135.86 721.153 146.451C720.697 148.95 720.095 151.354 719.353 153.653C716.457 162.617 711.446 169.938 704.859 174.68C698.323 179.419 690.392 181.552 683.492 183.014C675.298 184.75 664.654 185.799 655.016 185.819C644.516 185.846 634.725 184.465 627.446 181.932C620.549 179.531 616.193 176.622 614.134 173.039C611.75 168.892 610.233 161.66 624.509 146.815C626.806 144.425 628.992 141.745 631.006 138.849C631.527 138.1 632.066 137.298 632.603 136.464C634.711 133.204 636.673 129.733 638.573 126.376C641.508 121.183 644.545 115.811 648.157 111.17C658.022 98.4938 669.09 93.8556 682.984 96.5767C693.795 98.693 704.692 105.546 712.135 114.911Z" fill="white" fill-opacity="0.1"/>
<path d="M665.844 106.319C661.189 108.459 656.984 112.04 652.984 117.264C649.946 121.231 647.474 125.798 645.085 130.217C643.484 133.174 641.831 136.231 640.022 139.084C639.574 139.792 639.123 140.475 638.681 141.115C637.015 143.532 635.16 145.794 633.162 147.841C623.524 157.715 620.623 164.763 623.754 170.693C625.45 173.905 629.187 176.544 635.178 178.766C641.53 181.121 650.074 182.398 659.234 182.364C667.521 182.338 676.801 181.393 684.062 179.838C689.632 178.643 696.757 176.748 702.476 172.657C708.319 168.476 712.758 162.037 715.297 154.178C715.894 152.33 716.384 150.407 716.765 148.413C718.53 139.175 715.722 129.362 708.863 120.785C702.333 112.618 692.823 106.597 683.422 104.678C676.89 103.346 671.142 103.883 665.844 106.319ZM708.34 121.2C711.666 125.358 714.03 129.771 715.363 134.314C716.735 138.984 716.986 143.687 716.109 148.29C714.143 158.593 709.162 167.053 702.087 172.117C699.136 174.229 694.404 176.94 683.92 179.189C676.704 180.738 667.474 181.675 659.229 181.701C650.146 181.734 641.684 180.47 635.405 178.143C629.574 175.982 625.953 173.443 624.338 170.383C623.04 167.926 622.856 165.247 623.838 162.206C625.108 158.273 628.333 153.74 633.636 148.306C635.659 146.233 637.54 143.941 639.227 141.494C639.674 140.846 640.13 140.155 640.582 139.44C642.404 136.568 644.064 133.499 645.669 130.534C648.046 126.139 650.506 121.596 653.512 117.67C661.831 106.804 671.291 102.886 683.286 105.333C692.539 107.218 701.905 113.152 708.34 121.2Z" fill="white" fill-opacity="0.1"/>
<path d="M658.344 123.76C655.895 127.031 653.988 130.793 652.145 134.431C650.854 136.978 649.519 139.611 648.006 142.059C647.643 142.65 647.274 143.22 646.908 143.756C645.564 145.732 644.014 147.605 642.302 149.32C634.162 157.484 631.663 163.071 633.952 168.002C635.206 170.704 638.208 172.98 643.131 174.962C648.475 177.112 655.693 178.275 663.458 178.236C670.357 178.205 678.223 177.37 684.5 176.002C689.383 174.939 695.009 173.403 699.708 170.089C704.691 166.573 708.475 161.138 710.614 154.516C711.058 153.144 711.431 151.72 711.729 150.252C713.314 142.445 711.014 134.429 705.074 127.066C699.552 120.219 691.577 115.121 683.74 113.43C673.507 111.223 665.201 114.602 658.344 123.76ZM704.555 127.483C710.364 134.688 712.619 142.514 711.075 150.12C709.373 158.503 705.2 165.401 699.324 169.548C694.721 172.795 689.175 174.306 684.358 175.355C678.123 176.713 670.31 177.543 663.456 177.573C655.775 177.612 648.646 176.466 643.381 174.346C638.622 172.432 635.736 170.265 634.557 167.723C632.405 163.088 634.862 157.724 642.775 149.789C644.515 148.043 646.092 146.138 647.46 144.13C647.832 143.587 648.207 143.007 648.573 142.408C650.098 139.936 651.442 137.291 652.739 134.732C654.57 131.118 656.466 127.383 658.879 124.159C662.095 119.865 665.522 116.941 669.358 115.223C673.632 113.309 678.29 112.934 683.6 114.079C691.291 115.739 699.125 120.75 704.555 127.483Z" fill="white" fill-opacity="0.1"/>
<path d="M663.718 130.248C661.842 132.84 660.481 135.821 659.166 138.703C658.2 140.82 657.2 143.007 656.004 145.029C655.725 145.504 655.438 145.961 655.15 146.39C654.104 147.955 652.898 149.395 651.46 150.791C644.75 157.303 642.705 161.37 644.166 165.297C644.986 167.502 647.253 169.415 651.098 171.151C655.417 173.101 661.313 174.148 667.698 174.104C673.215 174.069 679.665 173.342 684.955 172.164C688.802 171.306 693.238 170.082 696.954 167.517C701.081 164.668 704.215 160.235 705.952 154.858C706.243 153.96 706.495 153.035 706.704 152.085C708.087 145.849 706.218 139.367 701.298 133.339C696.785 127.81 690.343 123.636 684.07 122.173C675.717 120.224 669.06 122.866 663.718 130.248ZM700.783 133.757C705.57 139.621 707.393 145.908 706.055 151.939C704.622 158.401 701.254 163.736 696.575 166.968C692.954 169.468 688.593 170.668 684.809 171.513C679.564 172.683 673.164 173.403 667.692 173.438C661.4 173.482 655.602 172.455 651.369 170.545C647.694 168.887 645.541 167.095 644.786 165.065C643.433 161.43 645.435 157.562 651.921 151.269C653.393 149.839 654.628 148.366 655.701 146.761C655.996 146.323 656.29 145.854 656.574 145.369C657.789 143.318 658.794 141.114 659.77 138.982C661.073 136.129 662.419 133.18 664.255 130.641C669.424 123.499 675.856 120.942 683.919 122.82C690.055 124.248 696.361 128.337 700.783 133.757Z" fill="white" fill-opacity="0.1"/>
<path d="M669.117 136.733C667.789 138.677 666.951 140.91 666.141 143.07C665.521 144.723 664.881 146.431 664.027 147.992C663.823 148.364 663.624 148.698 663.417 149.015C662.676 150.162 661.769 151.219 660.645 152.249C655.828 156.663 653.664 159.332 654.4 162.562C654.792 164.288 656.324 165.848 659.079 167.322C662.349 169.073 666.926 170.009 671.963 169.957C677.943 169.9 683.375 168.786 685.434 168.31C688.245 167.66 691.488 166.749 694.222 164.931C697.508 162.746 699.998 159.329 701.327 155.212C701.465 154.786 701.591 154.352 701.704 153.909C702.894 149.245 701.456 144.297 697.548 139.598C694.845 136.346 689.978 132.357 684.433 130.903C678.058 129.235 672.904 131.196 669.117 136.733ZM697.04 140.025C700.861 144.617 702.213 149.234 701.063 153.746C699.904 158.285 697.345 162.06 693.855 164.379C691.21 166.138 688.037 167.027 685.284 167.663C683.248 168.135 677.871 169.236 671.956 169.293C667.028 169.345 662.566 168.437 659.394 166.739C656.852 165.378 655.391 163.926 655.049 162.418C654.852 161.551 654.888 160.726 655.16 159.883C655.805 157.886 657.777 155.784 661.096 152.741C662.261 151.672 663.202 150.574 663.975 149.38C664.188 149.05 664.397 148.701 664.61 148.313C665.489 146.711 666.136 144.98 666.763 143.306C667.559 141.183 668.382 138.987 669.666 137.111C673.277 131.829 678.189 129.96 684.266 131.55C689.66 132.96 694.402 136.853 697.04 140.025Z" fill="white" fill-opacity="0.1"/>
<path d="M674.573 143.216C673.766 144.536 673.437 146.053 673.119 147.52C672.867 148.684 672.605 149.89 672.106 150.96C671.991 151.207 671.873 151.428 671.744 151.64C671.283 152.397 670.699 153.051 669.902 153.695C669.407 154.094 668.952 154.452 668.509 154.798C666.259 156.559 664.773 157.72 664.704 159.78C664.661 161.021 665.518 162.334 667.11 163.477C669.905 165.479 673.647 165.848 676.292 165.806C680.198 165.747 684.038 164.931 685.98 164.45C687.744 164.012 689.787 163.421 691.55 162.344C693.894 160.913 695.647 158.694 696.76 155.753C696.804 155.64 696.843 155.526 696.881 155.41C697.825 152.488 696.809 149.274 693.86 145.851C691.938 143.619 688.564 140.814 684.866 139.634C680.428 138.216 676.868 139.456 674.573 143.216ZM693.358 146.282C696.252 149.642 697.188 152.743 696.139 155.515C695.078 158.314 693.417 160.421 691.204 161.774C689.518 162.803 687.537 163.377 685.822 163.8C683.908 164.274 680.123 165.078 676.282 165.136C673.735 165.178 670.143 164.828 667.498 162.932C666.091 161.923 665.335 160.81 665.368 159.799C665.426 158.048 666.743 157.022 668.919 155.317C669.364 154.97 669.823 154.61 670.321 154.208C671.178 153.514 671.81 152.807 672.311 151.982C672.454 151.75 672.583 151.508 672.708 151.237C673.239 150.099 673.507 148.856 673.769 147.658C674.09 146.18 674.392 144.783 675.139 143.559C677.287 140.04 680.492 138.933 684.665 140.263C688.232 141.403 691.495 144.12 693.358 146.282Z" fill="white" fill-opacity="0.1"/>
<path d="M680.2 149.772C679.876 150.531 680.05 151.389 680.221 152.217C680.355 152.875 680.483 153.496 680.357 154.015C680.331 154.125 680.294 154.225 680.247 154.319C679.803 155.198 678.969 155.35 678.004 155.525C677.039 155.702 675.943 155.9 675.252 156.951C674.734 157.738 674.744 158.834 675.279 159.612C676.282 161.07 678.143 161.771 680.808 161.694C682.501 161.645 684.491 161.286 686.721 160.628C689.543 159.793 691.214 158.852 691.981 157.665C692.126 157.442 692.236 157.209 692.313 156.971C692.755 155.603 692.098 153.982 690.349 152.136C689.951 151.716 687.849 149.565 685.512 148.417C684.109 147.728 682.918 147.558 681.969 147.908C681.2 148.2 680.604 148.825 680.2 149.772ZM685.221 149.016C686.955 149.868 688.808 151.477 689.87 152.596C691.709 154.536 692.219 156.079 691.424 157.306C690.758 158.337 689.159 159.215 686.535 159.991C684.36 160.634 682.428 160.983 680.792 161.03C678.366 161.101 676.696 160.496 675.83 159.236C675.532 158.802 675.463 158.209 675.625 157.705C675.67 157.568 675.731 157.436 675.809 157.317C676.344 156.505 677.21 156.347 678.126 156.179C679.121 155.998 680.251 155.792 680.842 154.619C680.913 154.478 680.968 154.329 681.006 154.169C681.164 153.507 681.016 152.784 680.874 152.084C680.718 151.32 680.571 150.6 680.813 150.031C681.142 149.257 681.61 148.754 682.205 148.534C682.972 148.248 683.989 148.411 685.221 149.016Z" fill="white" fill-opacity="0.1"/>
</g>
</svg>
