<svg width="21" height="16" viewBox="0 0 21 16" fill="none" xmlns="http://www.w3.org/2000/svg">
<path fill-rule="evenodd" clip-rule="evenodd" d="M19.4893 0C19.8928 0 20.2558 0.156217 20.5258 0.411017L10.4997 9.10001L0.476743 0.41405C0.746743 0.157733 1.10974 0 1.51024 0H19.4893ZM7.90197 8.31766L10.5 10.6169L13.098 8.31766L20.5215 14.7559C20.253 15.0092 19.89 15.1669 19.4895 15.1669H1.51047C1.10847 15.1669 0.743966 15.0092 0.473966 14.7559L7.90197 8.31766ZM0 1.33187V13.9323L7.2495 7.70339L0 1.33187ZM21.0001 13.9324L13.7506 7.70343L21.0001 1.32736V13.9324Z" fill="#6AB8EE"/>
</svg>
