<svg width="24" height="24" viewBox="0 0 24 24" fill="none" xmlns="http://www.w3.org/2000/svg">
<path fill-rule="evenodd" clip-rule="evenodd" d="M12 24C18.6274 24 24 18.6274 24 12C24 5.37258 18.6274 0 12 0C5.37258 0 0 5.37258 0 12C0 18.6274 5.37258 24 12 24Z" fill="#6AB8EE"/>
<path fill-rule="evenodd" clip-rule="evenodd" d="M10.2844 7.42888L9.82613 7.89089C9.67547 8.05107 9.6001 8.23803 9.6001 8.45153C9.6001 8.66934 9.67547 8.85418 9.82613 9.00619L12.7956 12.0008L9.8262 14.9954C9.67554 15.1474 9.60017 15.3322 9.60017 15.55C9.60017 15.7635 9.67554 15.9505 9.8262 16.1107L10.2845 16.5666C10.4392 16.7227 10.6246 16.8008 10.8405 16.8008C11.0604 16.8008 11.2437 16.7227 11.3903 16.5666L15.3679 12.5554C15.5227 12.4074 15.6001 12.2227 15.6001 12.0008C15.6001 11.783 15.5227 11.5962 15.3679 11.4401L11.3903 7.42888C11.2396 7.27687 11.0563 7.20078 10.8405 7.20078C10.6286 7.20078 10.4433 7.27687 10.2844 7.42888Z" fill="white"/>
</svg>
